spi_systemc.vcd
$date
     Dec 02, 2017       16:40:34
$end

$version
 SystemC 2.3.1-Accellera --- Nov 12 2017 20:15:16
$end

$timescale
     1 ps
$end

$scope module SystemC $end
$var wire    1  aaaaa  clock       $end
$var wire    1  aaaab  miso       $end
$var wire    1  aaaac  mosi       $end
$var wire    1  aaaad  rst       $end
$var wire    1  aaaae  start       $end
$var wire    1  aaaaf  ss       $end
$var wire    1  aaaag  sclk       $end
$var wire    1  aaaah  busy       $end
$var wire    8  aaaai  data_in [7:0]  $end
$var wire    8  aaaaj  data_out [7:0]  $end
$upscope $end
$enddefinitions  $end

$comment
All initial values are dumped below at time 0 sec = 0 timescale units.
$end

$dumpvars
0aaaaa
0aaaab
0aaaac
1aaaad
0aaaae
1aaaaf
0aaaag
0aaaah
b110101 aaaai
b0 aaaaj
$end

#10000
1aaaaa
0aaaad

#15000
0aaaaa

#20000
1aaaaa
1aaaab
1aaaac
1aaaae
0aaaaf
1aaaah

#25000
0aaaaa

#30000
1aaaaa

#35000
0aaaaa

#40000
1aaaaa
1aaaag

#45000
0aaaaa

#50000
1aaaaa

#55000
0aaaaa

#60000
1aaaaa
0aaaac
0aaaae
0aaaag
b10001101 aaaaj

#65000
0aaaaa

#70000
1aaaaa

#75000
0aaaaa

#80000
1aaaaa
1aaaag

#85000
0aaaaa

#90000
1aaaaa

#95000
0aaaaa

#100000
1aaaaa
0aaaab
1aaaac
0aaaag
b11000110 aaaaj

#105000
0aaaaa

#110000
1aaaaa

#115000
0aaaaa

#120000
1aaaaa
1aaaag

#125000
0aaaaa

#130000
1aaaaa

#135000
0aaaaa

#140000
1aaaaa
0aaaac
0aaaag
b1100011 aaaaj

#145000
0aaaaa

#150000
1aaaaa

#155000
0aaaaa

#160000
1aaaaa
1aaaag

#165000
0aaaaa

#170000
1aaaaa

#175000
0aaaaa

#180000
1aaaaa
1aaaab
1aaaac
0aaaag
b110001 aaaaj

#185000
0aaaaa

#190000
1aaaaa

#195000
0aaaaa

#200000
1aaaaa
1aaaag

#205000
0aaaaa

#210000
1aaaaa

#215000
0aaaaa

#220000
1aaaaa
0aaaab
0aaaag
b10011000 aaaaj

#225000
0aaaaa

#230000
1aaaaa

#235000
0aaaaa

#240000
1aaaaa
1aaaag

#245000
0aaaaa

#250000
1aaaaa

#255000
0aaaaa

#260000
1aaaaa
1aaaab
0aaaac
0aaaag
b1001100 aaaaj

#265000
0aaaaa

#270000
1aaaaa

#275000
0aaaaa

#280000
1aaaaa
1aaaag

#285000
0aaaaa

#290000
1aaaaa

#295000
0aaaaa

#300000
1aaaaa
0aaaab
0aaaag
b10100110 aaaaj

#305000
0aaaaa

#310000
1aaaaa

#315000
0aaaaa

#320000
1aaaaa
1aaaag

#325000
0aaaaa

#330000
1aaaaa

#335000
0aaaaa

#340000
1aaaaa
0aaaag
b1010011 aaaaj

#345000
0aaaaa

#350000
1aaaaa
1aaaaf
0aaaah

#355000
0aaaaa

#360000
1aaaaa

#365000
0aaaaa

#370000
1aaaaa

#375000
0aaaaa

#380000
1aaaaa

#385000
0aaaaa

#390000
1aaaaa

#395000
0aaaaa

#400000
1aaaaa
1aaaad
b10011001 aaaai
b0 aaaaj

#405000
0aaaaa

#410000
1aaaaa
0aaaad

#415000
0aaaaa

#420000
1aaaaa
1aaaac
1aaaae
0aaaaf
1aaaah

#425000
0aaaaa

#430000
1aaaaa

#435000
0aaaaa

#440000
1aaaaa
1aaaag

#445000
0aaaaa

#450000
1aaaaa

#455000
0aaaaa

#460000
1aaaaa
1aaaab
0aaaac
0aaaae
0aaaag
b100110 aaaaj

#465000
0aaaaa

#470000
1aaaaa

#475000
0aaaaa

#480000
1aaaaa
1aaaag

#485000
0aaaaa

#490000
1aaaaa

#495000
0aaaaa

#500000
1aaaaa
0aaaab
0aaaag
b10010011 aaaaj

#505000
0aaaaa

#510000
1aaaaa

#515000
0aaaaa

#520000
1aaaaa
1aaaag

#525000
0aaaaa

#530000
1aaaaa

#535000
0aaaaa

#540000
1aaaaa
1aaaab
1aaaac
0aaaag
b1001001 aaaaj

#545000
0aaaaa

#550000
1aaaaa

#555000
0aaaaa

#560000
1aaaaa
1aaaag

#565000
0aaaaa

#570000
1aaaaa

#575000
0aaaaa

#580000
1aaaaa
0aaaab
0aaaag
b10100100 aaaaj

#585000
0aaaaa

#590000
1aaaaa

#595000
0aaaaa

#600000
1aaaaa
1aaaag

#605000
0aaaaa

#610000
1aaaaa

#615000
0aaaaa

#620000
1aaaaa
0aaaac
0aaaag
b1010010 aaaaj

#625000
0aaaaa

#630000
1aaaaa

#635000
0aaaaa

#640000
1aaaaa
1aaaag

#645000
0aaaaa

#650000
1aaaaa

#655000
0aaaaa

#660000
1aaaaa
0aaaag
b101001 aaaaj

#665000
0aaaaa

#670000
1aaaaa

#675000
0aaaaa

#680000
1aaaaa
1aaaag

#685000
0aaaaa

#690000
1aaaaa

#695000
0aaaaa

#700000
1aaaaa
1aaaac
0aaaag
b10100 aaaaj

#705000
0aaaaa

#710000
1aaaaa

#715000
0aaaaa

#720000
1aaaaa
1aaaag

#725000
0aaaaa

#730000
1aaaaa

#735000
0aaaaa

#740000
1aaaaa
0aaaac
0aaaag
b1010 aaaaj

#745000
0aaaaa

#750000
1aaaaa
1aaaaf
0aaaah

#755000
0aaaaa

#760000
1aaaaa

#765000
0aaaaa

#770000
1aaaaa

#775000
0aaaaa

#780000
1aaaaa

#785000
0aaaaa

#790000
1aaaaa

#795000
0aaaaa

#800000
1aaaaa
1aaaad
b0 aaaaj

#805000
0aaaaa

#810000
1aaaaa
0aaaad

#815000
0aaaaa

#820000
1aaaaa
1aaaac
1aaaae
0aaaaf
1aaaah

#825000
0aaaaa

#830000
1aaaaa

#835000
0aaaaa

#840000
1aaaaa
1aaaag

#845000
0aaaaa

#850000
1aaaaa

#855000
0aaaaa

#860000
1aaaaa
1aaaab
0aaaac
0aaaae
0aaaag
b100110 aaaaj

#865000
0aaaaa

#870000
1aaaaa

#875000
0aaaaa

#880000
1aaaaa
1aaaag

#885000
0aaaaa

#890000
1aaaaa

#895000
0aaaaa

#900000
1aaaaa
0aaaab
0aaaag
b10010011 aaaaj

#905000
0aaaaa

#910000
1aaaaa

#915000
0aaaaa

#920000
1aaaaa
1aaaag

#925000
0aaaaa

#930000
1aaaaa

#935000
0aaaaa

#940000
1aaaaa
1aaaab
1aaaac
0aaaag
b1001001 aaaaj

#945000
0aaaaa

#950000
1aaaaa

#955000
0aaaaa

#960000
1aaaaa
1aaaag

#965000
0aaaaa

#970000
1aaaaa

#975000
0aaaaa

#980000
1aaaaa
0aaaab
0aaaac
1aaaad
1aaaaf
0aaaag
0aaaah
b0 aaaaj

#985000
0aaaaa

#990000
1aaaaa

#995000
0aaaaa

#1000000
1aaaaa

#1005000
0aaaaa

#1010000
1aaaaa

#1015000
0aaaaa

#1020000
1aaaaa
0aaaad

