graphs/system.vcd
$date
	Sun Dec 24 23:17:03 2017
$end
$version
	GTKWave Analyzer v3.3.79 (w)1999-2017 BSI
$end
$timescale
	1ps
$end
$scope module SystemC $end
$var wire 1 * hsel_2 $end
$var wire 1 ) hsel_1 $end
$var wire 1 ( hsel_0 $end
$var wire 32 ' hrdata_out[31:0] $end
$var wire 32 + hwdata[31:0] $end
$var wire 1 , hwrite $end
$var wire 8 / jstk_data_in[7:0] $end
$var wire 32 # haddr[31:0] $end
$var wire 8 0 jstk_data_out[7:0] $end
$var wire 8 7 spi_ahb_data_in[7:0] $end
$var wire 8 8 spi_ahb_data_out[7:0] $end
$var wire 1 5 n_hreset $end
$var wire 1 9 ss $end
$var wire 1 6 sclk $end
$var wire 1 " clk_m $end
$var wire 1 4 mosi $end
$var wire 1 3 miso $end
$var wire 1 - jstk_busy $end
$var wire 1 . spi_ahb_busy $end
$var wire 1 : start $end
$var wire 16 1 leds[15:0] $end
$var wire 16 2 switches[15:0] $end
$var wire 32 & hrdata_in_2[31:0] $end
$var wire 32 % hrdata_in_1[31:0] $end
$var wire 32 $ hrdata_in_0[31:0] $end
$upscope $end
$enddefinitions $end
$dumpvars
#0
0"
b1011101010111010 2
b0 0
b0 '
0*
0)
03
b0 #
04
b0 8
b0 +
0-
0.
b0 1
b0 7
0:
06
b0 %
0,
b0 &
0(
15
b0 /
b0 $
19
#10000
1"
b1000000000000000000000000001000 #
1,
1(
#15000
0"
b1101111010101101 2
#20000
1"
0(
b1000000011011111011011010 +
0,
#25000
b1101000000001101 2
0"
#30000
1"
b1011111011011010 1
#35000
0"
b1011111011101111 2
#40000
1"
1(
b1000000000000000000000000000100 #
#45000
0"
b1101000111000110 2
#50000
1"
b0 #
b1101000111000110 '
0(
b1101000111000110 $
#55000
0"
b1011000101101011 2
#60000
1"
#65000
0"
b10110101 2
#70000
1"
b1000000000000000000000000001000 #
1(
#75000
0"
b1011101010111010 2
#80000
1"
0(
b1011111011011010 $
b0 #
b1011111011011010 '
#85000
0"
b1101111010101101 2
#90000
1"
#95000
0"
b1101000000001101 2
#100000
1"
#105000
0"
b1011111011101111 2
#110000
1"
#115000
0"
b1101000111000110 2
#120000
1"
#125000
0"
b1011000101101011 2
#130000
1"
#135000
0"
b10110101 2
#140000
1"
#145000
0"
b1011101010111010 2
#150000
1"
#155000
0"
b1101111010101101 2
#160000
1"
#165000
0"
b1101000000001101 2
#170000
1"
#175000
0"
b1011111011101111 2
#180000
1"
#185000
0"
b1101000111000110 2
#190000
1"
#195000
0"
b1011000101101011 2
#200000
1"
#205000
0"
b10110101 2
#210000
1"
#215000
0"
b1011101010111010 2
#220000
1"
#225000
0"
b1101111010101101 2
#230000
1"
#235000
0"
b1101000000001101 2
#240000
1"
#245000
0"
b1011111011101111 2
#250000
1"
#255000
0"
b1101000111000110 2
#260000
1"
#265000
0"
b1011000101101011 2
#270000
1"
#275000
0"
b10110101 2
#280000
1"
#285000
0"
b1011101010111010 2
#290000
1"
#295000
0"
b1101111010101101 2
#300000
1"
1)
1,
b1000000000000000001000000010010 #
#305000
b1101000000001101 2
0"
#310000
1"
0)
0,
b101 +
#315000
0"
b1011111011101111 2
#320000
1"
b101 7
b1000000000000000001000000000100 #
1,
1)
#325000
b1101000111000110 2
0"
#330000
1"
b0 +
0)
0,
#335000
b1011000101101011 2
0"
#340000
1"
1,
09
1)
b1000000000000000001000000000000 #
b10101010 /
#345000
0"
b10110101 2
#350000
1"
b1 +
0,
0)
#355000
b1011101010111010 2
0"
#360000
1"
1)
14
1.
1:
b1000000000000000001000000001000 #
#365000
b1101111010101101 2
0"
#370000
1"
b0 #
0)
0:
#375000
0"
b1101000000001101 2
#380000
1"
b1000000000000000001000000001000 #
1-
1)
16
#385000
0"
b1011111011101111 2
#390000
1"
b0 #
0)
#395000
0"
b1101000111000110 2
#400000
1"
b10101010 0
13
1)
b1 8
06
04
b1000000000000000001000000001000 #
#405000
0"
b1011000101101011 2
#410000
1"
b0 #
0)
#415000
b10110101 2
0"
#420000
1"
b1000000000000000001000000001000 #
16
1)
#425000
0"
b1011101010111010 2
#430000
1"
0)
b0 #
#435000
b1101111010101101 2
0"
#440000
1"
1)
06
b1000000000000000001000000001000 #
b1010101 0
b10000000 8
03
14
#445000
0"
b1101000000001101 2
#450000
1"
0)
b0 #
#455000
0"
b1011111011101111 2
#460000
1"
b1000000000000000001000000001000 #
1)
16
#465000
0"
b1101000111000110 2
#470000
1"
0)
b0 #
#475000
0"
b1011000101101011 2
#480000
1"
04
b1000000 8
b1000000000000000001000000001000 #
b10101010 0
1)
06
13
#485000
0"
b10110101 2
#490000
1"
0)
b0 #
#495000
b1011101010111010 2
0"
#500000
1"
1)
b1000000000000000001000000001000 #
16
#505000
b1101111010101101 2
0"
#510000
1"
0)
b0 #
#515000
0"
b1101000000001101 2
#520000
1"
b1000000000000000001000000001000 #
03
06
b1010101 0
b10100000 8
1)
#525000
0"
b1011111011101111 2
#530000
1"
0)
b0 #
#535000
b1101000111000110 2
0"
#540000
1"
1)
b1000000000000000001000000001000 #
16
#545000
b1011000101101011 2
0"
#550000
1"
b0 #
0)
#555000
b10110101 2
0"
#560000
1"
b1000000000000000001000000001000 #
b101010 0
1)
06
13
b1010000 8
#565000
0"
b1011101010111010 2
#570000
1"
0)
b0 #
#575000
0"
b1101111010101101 2
#580000
1"
16
b1000000000000000001000000001000 #
1)
#585000
b1101000000001101 2
0"
#590000
1"
b0 #
0)
#595000
b1011111011101111 2
0"
#600000
1"
b1000000000000000001000000001000 #
b10101000 8
1)
06
b10101 0
03
#605000
0"
b1101000111000110 2
#610000
1"
0)
b0 #
#615000
0"
b1011000101101011 2
#620000
1"
16
b1000000000000000001000000001000 #
1)
#625000
b10110101 2
0"
#630000
1"
b0 #
0)
#635000
b1011101010111010 2
0"
#640000
1"
b1000000000000000001000000001000 #
13
1)
06
b1010100 8
b1010 0
#645000
0"
b1101111010101101 2
#650000
1"
0)
b0 #
#655000
0"
b1101000000001101 2
#660000
1"
16
b1000000000000000001000000001000 #
1)
b1 /
#665000
b1011111011101111 2
0"
#670000
1"
0)
b0 #
#675000
b1101000111000110 2
0"
#680000
1"
1)
b101 0
b1000000000000000001000000001000 #
06
03
b10101010 8
#685000
0"
b1011000101101011 2
#690000
1"
b1 '
b0 #
0)
0-
b1 %
0.
#695000
b10110101 2
0"
#700000
1"
b1000000000000000001000000010010 #
1)
13
#705000
0"
b1011101010111010 2
#710000
1"
b10101010 '
0)
b0 #
b10101010 %
#715000
0"
b1101111010101101 2
#720000
1"
b1000000000000000001000000000000 #
1)
1,
#725000
b1101000000001101 2
0"
#730000
1"
0,
0)
#735000
0"
b1011111011101111 2
#740000
1)
b0 8
14
1:
1.
1"
b1000000000000000001000000001000 #
#745000
b1101000111000110 2
0"
#750000
1"
b0 #
0:
0)
b0 %
b0 '
#755000
0"
b1011000101101011 2
#760000
1)
16
b1000000000000000001000000001000 #
b0 0
1"
1-
#765000
b10110101 2
0"
#770000
1"
b0 #
0)
#775000
0"
b1011101010111010 2
#780000
1)
03
b1000000000000000001000000001000 #
04
06
b11000001 8
1"
b10000000 0
#785000
b1101111010101101 2
0"
#790000
1"
0)
b0 #
#795000
0"
b1101000000001101 2
#800000
b1000000000000000001000000001000 #
16
1)
1"
#805000
0"
b1011111011101111 2
#810000
1"
b0 #
0)
#815000
0"
b1101000111000110 2
#820000
1"
06
1)
14
b1000000 0
b1000000000000000001000000001000 #
b1100000 8
#825000
b1011000101101011 2
0"
#830000
1"
0)
b0 #
#835000
0"
b10110101 2
#840000
1"
b1000000000000000001000000001000 #
16
1)
#845000
0"
b1011101010111010 2
#850000
1"
0)
b0 #
#855000
0"
b1101111010101101 2
#860000
1"
04
b1000000000000000001000000001000 #
b110000 8
1)
06
b10100000 0
#865000
b1101000000001101 2
0"
#870000
1"
b0 #
0)
#875000
0"
b1011111011101111 2
#880000
1"
1)
b1000000000000000001000000001000 #
16
#885000
0"
b1101000111000110 2
#890000
1"
b0 #
0)
#895000
b1011000101101011 2
0"
#900000
1"
1)
b11000 8
06
b1010000 0
b1000000000000000001000000001000 #
#905000
0"
b10110101 2
#910000
b0 #
0)
1"
#915000
0"
b1011101010111010 2
#920000
1"
16
b1000000000000000001000000001000 #
1)
#925000
b1101111010101101 2
0"
#930000
1"
0)
b0 #
#935000
0"
b1101000000001101 2
#940000
1"
06
b1000000000000000001000000001000 #
b1100 8
1)
b101000 0
#945000
b1011111011101111 2
0"
#950000
1"
b0 #
0)
#955000
0"
b1101000111000110 2
#960000
1"
1)
16
b1000000000000000001000000001000 #
#965000
b1011000101101011 2
0"
#970000
1"
0)
b0 #
#975000
b10110101 2
0"
#980000
1"
1)
b1000000000000000001000000001000 #
b10100 0
06
b110 8
#985000
b1011101010111010 2
0"
#990000
1"
b0 #
0)
#995000
b1101111010101101 2
0"
#1000000
1"
b1000000000000000001000000001000 #
1)
16
#1005000
b1101000000001101 2
0"
#1010000
1"
b0 #
0)
#1015000
0"
b1011111011101111 2
#1020000
1"
1)
06
b11 8
b1000000000000000001000000001000 #
b1010 0
#1025000
b1101000111000110 2
0"
#1030000
1"
0)
b0 #
#1035000
0"
b1011000101101011 2
#1040000
1"
16
b1000000000000000001000000001000 #
b110011 /
1)
#1045000
b10110101 2
0"
#1050000
1"
b0 #
0)
#1055000
b1011101010111010 2
0"
#1060000
1"
b1000000000000000001000000001000 #
1)
b101 0
06
14
b1 8
#1065000
b1101111010101101 2
0"
#1070000
1"
b1 '
0-
0)
b0 #
04
b1 %
0.
#1075000
0"
b1101000000001101 2
#1080000
1"
1)
13
b1000000000000000001000000010010 #
#1085000
b1011111011101111 2
0"
#1090000
1"
0)
b0 #
#1095000
b1101000111000110 2
0"
#1100000
1"
1)
b1000000000000000001000000000000 #
1,
#1105000
b1011000101101011 2
0"
#1110000
1"
0)
0,
#1115000
b10110101 2
0"
#1120000
1"
1)
1.
1:
b0 8
b1000000000000000001000000001000 #
14
#1125000
0"
b1011101010111010 2
#1130000
1"
0:
0)
b0 '
b0 #
b0 %
#1135000
b1101111010101101 2
0"
#1140000
1"
1)
16
b0 0
1-
b1000000000000000001000000001000 #
#1145000
0"
b1101000000001101 2
#1150000
1"
b0 #
0)
#1155000
b1011111011101111 2
0"
#1160000
1"
b1000000000000000001000000001000 #
b10001100 0
04
1)
06
b10000001 8
#1165000
b1101000111000110 2
0"
#1170000
1"
b0 #
0)
#1175000
0"
b1011000101101011 2
#1180000
1"
1)
b1000000000000000001000000001000 #
16
#1185000
0"
b10110101 2
#1190000
1"
0)
b0 #
#1195000
0"
b1011101010111010 2
#1200000
1"
b1000000000000000001000000001000 #
b11000000 8
06
14
b1000110 0
1)
03
#1205000
b1101111010101101 2
0"
#1210000
1"
b0 #
0)
#1215000
0"
b1101000000001101 2
#1220000
1"
1)
16
b1000000000000000001000000001000 #
#1225000
b1011111011101111 2
0"
#1230000
1"
0)
b0 #
#1235000
b1101000111000110 2
0"
#1240000
1"
1)
04
b1000000000000000001000000001000 #
b1100000 8
06
b10100011 0
#1245000
0"
b1011000101101011 2
#1250000
1"
b0 #
0)
#1255000
b10110101 2
0"
#1260000
1"
b1000000000000000001000000001000 #
1)
16
#1265000
b1011101010111010 2
0"
#1270000
1"
b0 #
0)
#1275000
0"
b1101111010101101 2
#1280000
1"
1)
13
b1010001 0
06
b1000000000000000001000000001000 #
b110000 8
#1285000
b1101000000001101 2
0"
#1290000
1"
0)
b0 #
#1295000
0"
b1011111011101111 2
#1300000
1"
b1000000000000000001000000001000 #
1)
16
#1305000
0"
b1101000111000110 2
#1310000
1"
0)
b0 #
#1315000
b1011000101101011 2
0"
#1320000
1"
b1000000000000000001000000001000 #
06
b10011000 8
b101000 0
1)
#1325000
0"
b10110101 2
#1330000
0)
b0 #
1"
#1335000
0"
b1011101010111010 2
#1340000
1"
1)
16
b1000000000000000001000000001000 #
#1345000
0"
b1101111010101101 2
#1350000
1"
b0 #
0)
#1355000
0"
b1101000000001101 2
#1360000
1"
1)
b1000000000000000001000000001000 #
b11001100 8
03
06
b10100 0
#1365000
b1011111011101111 2
0"
#1370000
1"
0)
b0 #
#1375000
b1101000111000110 2
0"
#1380000
1"
1)
b1000000000000000001000000001000 #
16
#1385000
b1011000101101011 2
0"
#1390000
1"
0)
b0 #
#1395000
0"
b10110101 2
#1400000
1"
b1000000000000000001000000001000 #
b1010 0
b1100110 8
06
1)
#1405000
b1011101010111010 2
0"
#1410000
1"
0)
b0 #
#1415000
0"
b1101111010101101 2
#1420000
1"
b1000000000000000001000000001000 #
1)
16
b10 /
#1425000
0"
b1101000000001101 2
#1430000
1"
b0 #
0)
#1435000
0"
b1011111011101111 2
#1440000
1"
1)
b110011 8
b101 0
b1000000000000000001000000001000 #
06
#1445000
0"
b1101000111000110 2
#1450000
1"
0)
b1 %
0.
b0 #
0-
b1 '
#1455000
b1011000101101011 2
0"
#1460000
1"
1)
b1000000000000000001000000010010 #
#1465000
0"
b10110101 2
#1470000
1"
b0 #
b110011 '
b110011 %
0)
#1475000
b1011101010111010 2
0"
#1480000
1"
1)
b1000000000000000001000000000000 #
1,
#1485000
0"
b1101111010101101 2
#1490000
1"
0,
0)
#1495000
0"
b1101000000001101 2
#1500000
1"
b0 8
1)
b1000000000000000001000000001000 #
1:
14
1.
#1505000
b1011111011101111 2
0"
#1510000
1"
0:
b0 #
0)
b0 '
b0 %
#1515000
b1101000111000110 2
0"
#1520000
1"
1)
16
b1000000000000000001000000001000 #
1-
b0 0
#1525000
0"
b1011000101101011 2
#1530000
1"
0)
b0 #
#1535000
0"
b10110101 2
#1540000
1"
b10000000 0
06
b1000000000000000001000000001000 #
b1 8
1)
04
13
#1545000
0"
b1011101010111010 2
#1550000
1"
b0 #
0)
#1555000
0"
b1101111010101101 2
#1560000
1"
1)
16
b1000000000000000001000000001000 #
#1565000
b1101000000001101 2
0"
#1570000
1"
0)
b0 #
#1575000
b1011111011101111 2
0"
#1580000
1"
1)
03
b1000000000000000001000000001000 #
b1000000 0
06
14
b10000000 8
#1585000
0"
b1101000111000110 2
#1590000
1"
b0 #
0)
#1595000
b1011000101101011 2
0"
#1600000
1"
b1000000000000000001000000001000 #
1)
16
#1605000
b10110101 2
0"
#1610000
1"
b0 #
0)
#1615000
0"
b1011101010111010 2
#1620000
1"
1)
b1000000 8
06
b1000000000000000001000000001000 #
04
b10100000 0
#1625000
0"
b1101111010101101 2
#1630000
1"
0)
b0 #
#1635000
0"
b1101000000001101 2
#1640000
1"
b1000000000000000001000000001000 #
1)
16
#1645000
0"
b1011111011101111 2
#1650000
1"
0)
b0 #
#1655000
b1101000111000110 2
0"
#1660000
1"
b1000000000000000001000000001000 #
b1010000 0
b100000 8
06
1)
#1665000
0"
b1011000101101011 2
#1670000
0)
b0 #
1"
#1675000
0"
b10110101 2
#1680000
1"
1)
b1000000000000000001000000001000 #
16
#1685000
0"
b1011101010111010 2
#1690000
1"
b0 #
0)
#1695000
b1101111010101101 2
0"
#1700000
1"
1)
06
b10000 8
b101000 0
b1000000000000000001000000001000 #
#1705000
0"
b1101000000001101 2
#1710000
b0 #
0)
1"
#1715000
0"
b1011111011101111 2
#1720000
1"
b1000000000000000001000000001000 #
16
1)
#1725000
b1101000111000110 2
0"
#1730000
1"
b0 #
0)
#1735000
b1011000101101011 2
0"
#1740000
1"
b1000000000000000001000000001000 #
b1000 8
1)
06
b10100 0
#1745000
0"
b10110101 2
#1750000
1"
b0 #
0)
#1755000
0"
b1011101010111010 2
#1760000
1"
1)
b1000000000000000001000000001000 #
16
#1765000
0"
b1101111010101101 2
#1770000
1"
b0 #
0)
#1775000
b1101000000001101 2
0"
#1780000
1"
1)
b1010 0
b100 8
06
b1000000000000000001000000001000 #
#1785000
0"
b1011111011101111 2
#1790000
b0 #
0)
1"
#1795000
0"
b1101000111000110 2
#1800000
1"
b1000000000000000001000000001000 #
b101 /
1)
16
#1805000
0"
b1011000101101011 2
#1810000
1"
b0 #
0)
#1815000
0"
b10110101 2
#1820000
1"
1)
06
b10 8
b101 0
b1000000000000000001000000001000 #
#1825000
b1011101010111010 2
0"
#1830000
1"
b0 #
0)
0.
b1 %
b1 '
0-
#1835000
0"
b1101111010101101 2
#1840000
1"
1)
b1000000000000000001000000010010 #
13
#1845000
0"
b1101000000001101 2
#1850000
1"
b0 #
0)
b10 '
b10 %
#1855000
0"
b1011111011101111 2
#1860000
1"
1,
b1000000000000000001000000000000 #
1)
#1865000
0"
b1101000111000110 2
#1870000
1"
0)
0,
#1875000
0"
b1011000101101011 2
#1880000
1"
1.
b0 8
1)
1:
b1000000000000000001000000001000 #
14
#1885000
0"
b10110101 2
#1890000
1"
0)
b0 %
b0 #
0:
b0 '
#1895000
b1011101010111010 2
0"
#1900000
1"
1)
1-
16
b0 0
b1000000000000000001000000001000 #
#1905000
0"
b1101111010101101 2
#1910000
1"
b0 #
0)
#1915000
b1101000000001101 2
0"
#1920000
1"
b1000000000000000001000000001000 #
04
1)
b10000001 8
03
b10000001 0
06
#1925000
0"
b1011111011101111 2
#1930000
1"
0)
b0 #
#1935000
0"
b1101000111000110 2
#1940000
1"
16
b1000000000000000001000000001000 #
1)
#1945000
b1011000101101011 2
0"
#1950000
1"
b0 #
0)
#1955000
b10110101 2
0"
#1960000
1"
b1000000000000000001000000001000 #
b1000000 8
1)
06
14
b1000000 0
13
#1965000
0"
b1011101010111010 2
#1970000
1"
0)
b0 #
#1975000
0"
b1101111010101101 2
#1980000
1"
16
b1000000000000000001000000001000 #
1)
#1985000
b1101000000001101 2
0"
#1990000
1"
b0 #
0)
#1995000
b1011111011101111 2
0"
#2000000
1"
b1000000000000000001000000001000 #
03
1)
06
b10100000 8
b10100000 0
04
#2005000
0"
b1101000111000110 2
#2010000
1"
0)
b0 #
#2015000
0"
b1011000101101011 2
#2020000
1"
16
b1000000000000000001000000001000 #
1)
#2025000
b10110101 2
0"
#2030000
1"
b0 #
0)
#2035000
b1011101010111010 2
0"
#2040000
1"
b1000000000000000001000000001000 #
1)
06
b1010000 0
b1010000 8
#2045000
b1101111010101101 2
0"
#2050000
1"
0)
b0 #
#2055000
b1101000000001101 2
0"
#2060000
1"
1)
b1000000000000000001000000001000 #
16
#2065000
b1011111011101111 2
0"
#2070000
1"
0)
b0 #
#2075000
0"
b1101000111000110 2
#2080000
1"
b1000000000000000001000000001000 #
06
b101000 8
1)
b101000 0
#2085000
b1011000101101011 2
0"
#2090000
1"
b0 #
0)
#2095000
0"
b10110101 2
#2100000
1"
16
1)
b1000000000000000001000000001000 #
#2105000
b1011101010111010 2
0"
#2110000
1"
b0 #
0)
#2115000
0"
b1101111010101101 2
#2120000
1"
06
1)
b10100 0
b1000000000000000001000000001000 #
b10100 8
#2125000
b1101000000001101 2
0"
#2130000
1"
0)
b0 #
#2135000
0"
b1011111011101111 2
#2140000
1"
b1000000000000000001000000001000 #
16
1)
#2145000
b1101000111000110 2
0"
#2150000
1"
b0 #
0)
#2155000
b1011000101101011 2
0"
#2160000
1"
b1000000000000000001000000001000 #
1)
b1010 8
06
b1010 0
#2165000
b10110101 2
0"
#2170000
1"
0)
b0 #
#2175000
b1011101010111010 2
0"
#2180000
1"
1)
b1000000000000000001000000001000 #
16
#2185000
b1101111010101101 2
0"
#2190000
1"
0)
b0 #
#2195000
0"
b1101000000001101 2
#2200000
1"
b1000000000000000001000000001000 #
06
b101 0
1)
b101 8
#2205000
b1011111011101111 2
0"
#2210000
1"
0-
b0 #
b1 '
0.
0)
b1 %
#2215000
b1101000111000110 2
0"
#2220000
1"
b1000000000000000001000000010010 #
13
1)
#2225000
0"
b1011000101101011 2
#2230000
1"
b101 '
0)
b101 %
b0 #
#2235000
b10110101 2
0"
#2240000
1"
b1000000000000000001000000000100 #
1)
1,
#2245000
b1011101010111010 2
0"
#2250000
1"
0,
0)
#2255000
0"
b1101111010101101 2
#2260000
1"
#2265000
0"
b1101000000001101 2
#2270000
1"
19
#2275000
b1011111011101111 2
0"
#2280000
1"
#2285000
0"
b1101000111000110 2
#2290000
1"
#2295000
0"
b1011000101101011 2
#2300000
1"
#2305000
0"
b10110101 2
#2310000
1"
#2315000
0"
b1011101010111010 2
#2320000
1"
#2325000
0"
b1101111010101101 2
#2330000
1"
#2335000
0"
b1101000000001101 2
#2340000
1"
#2345000
0"
b1011111011101111 2
#2350000
1"
#2355000
0"
b1101000111000110 2
#2360000
1"
#2365000
0"
b1011000101101011 2
