graphs/test_spi.vcd
$date
     Dec 16, 2017       21:51:01
$end

$version
 SystemC 2.3.1-Accellera --- Dec 15 2017 22:31:56
$end

$timescale
     1 ps
$end

$scope module SystemC $end
$var wire    1  aaaaa  clock       $end
$var wire    1  aaaab  miso       $end
$var wire    1  aaaac  mosi       $end
$var wire    1  aaaad  rst       $end
$var wire    1  aaaae  start       $end
$var wire    1  aaaaf  ss       $end
$var wire    1  aaaag  sclk       $end
$var wire    1  aaaah  busy_m       $end
$var wire    1  aaaai  busy_s       $end
$var wire    8  aaaaj  data_in_m [7:0]  $end
$var wire    8  aaaak  data_out_m [7:0]  $end
$var wire    8  aaaal  data_in_s [7:0]  $end
$var wire    8  aaaam  data_out_s [7:0]  $end
$upscope $end
$enddefinitions  $end

$comment
All initial values are dumped below at time 0 sec = 0 timescale units.
$end

$dumpvars
0aaaaa
0aaaab
0aaaac
0aaaad
0aaaae
0aaaaf
0aaaag
0aaaah
1aaaai
b0 aaaaj
b0 aaaak
b0 aaaal
b0 aaaam
$end

#10000
1aaaaa

#15000
0aaaaa

#20000
1aaaaa

#25000
0aaaaa

#30000
1aaaaa

#35000
0aaaaa

#40000
1aaaaa

#45000
0aaaaa

#50000
1aaaaa

#55000
0aaaaa

#60000
1aaaaa
1aaaad
1aaaaf
0aaaai

#65000
0aaaaa

#70000
1aaaaa

#75000
0aaaaa

#80000
1aaaaa
1aaaac
0aaaad
1aaaae
0aaaaf
1aaaah
b110101 aaaaj
b1010011 aaaal

#85000
0aaaaa

#90000
1aaaaa
1aaaab
1aaaai

#95000
0aaaaa

#100000
1aaaaa
0aaaae
1aaaag

#105000
0aaaaa

#110000
1aaaaa

#115000
0aaaaa

#120000
1aaaaa
0aaaac
0aaaag
b10001101 aaaak
b10010100 aaaam

#125000
0aaaaa

#130000
1aaaaa

#135000
0aaaaa

#140000
1aaaaa
1aaaag

#145000
0aaaaa

#150000
1aaaaa

#155000
0aaaaa

#160000
1aaaaa
0aaaab
1aaaac
0aaaag
b11000110 aaaak
b1001010 aaaam

#165000
0aaaaa

#170000
1aaaaa

#175000
0aaaaa

#180000
1aaaaa
1aaaag

#185000
0aaaaa

#190000
1aaaaa

#195000
0aaaaa

#200000
1aaaaa
0aaaac
0aaaag
b1100011 aaaak
b10100101 aaaam

#205000
0aaaaa

#210000
1aaaaa

#215000
0aaaaa

#220000
1aaaaa
1aaaag

#225000
0aaaaa

#230000
1aaaaa

#235000
0aaaaa

#240000
1aaaaa
1aaaab
1aaaac
0aaaag
b110001 aaaak
b1010010 aaaam

#245000
0aaaaa

#250000
1aaaaa

#255000
0aaaaa

#260000
1aaaaa
1aaaag

#265000
0aaaaa

#270000
1aaaaa

#275000
0aaaaa

#280000
1aaaaa
0aaaab
0aaaag
b10011000 aaaak
b10101001 aaaam

#285000
0aaaaa

#290000
1aaaaa

#295000
0aaaaa

#300000
1aaaaa
1aaaag

#305000
0aaaaa

#310000
1aaaaa

#315000
0aaaaa

#320000
1aaaaa
1aaaab
0aaaac
0aaaag
b1001100 aaaak
b11010100 aaaam

#325000
0aaaaa

#330000
1aaaaa

#335000
0aaaaa

#340000
1aaaaa
1aaaag

#345000
0aaaaa

#350000
1aaaaa

#355000
0aaaaa

#360000
1aaaaa
0aaaab
0aaaag
b10100110 aaaak
b1101010 aaaam

#365000
0aaaaa

#370000
1aaaaa

#375000
0aaaaa

#380000
1aaaaa
1aaaag

#385000
0aaaaa

#390000
1aaaaa

#395000
0aaaaa

#400000
1aaaaa
0aaaag
b1010011 aaaak
b110101 aaaam

#405000
0aaaaa

#410000
1aaaaa
1aaaaf
0aaaah
0aaaai

#415000
0aaaaa

#420000
1aaaaa

#425000
0aaaaa

#430000
1aaaaa

#435000
0aaaaa

#440000
1aaaaa

#445000
0aaaaa

#450000
1aaaaa

#455000
0aaaaa

#460000
1aaaaa

#465000
0aaaaa

#470000
1aaaaa

#475000
0aaaaa

#480000
1aaaaa

#485000
0aaaaa

#490000
1aaaaa

#495000
0aaaaa

#500000
1aaaaa
1aaaad
b0 aaaak
b0 aaaam

#505000
0aaaaa

#510000
1aaaaa

#515000
0aaaaa

#520000
1aaaaa

#525000
0aaaaa

#530000
1aaaaa
1aaaac
0aaaad
1aaaae
0aaaaf
1aaaah
b10011001 aaaaj
b1010 aaaal

#535000
0aaaaa

#540000
1aaaaa
1aaaai

#545000
0aaaaa

#550000
1aaaaa
0aaaae
1aaaag

#555000
0aaaaa

#560000
1aaaaa

#565000
0aaaaa

#570000
1aaaaa
1aaaab
0aaaac
0aaaag
b100110 aaaak
b10000010 aaaam

#575000
0aaaaa

#580000
1aaaaa

#585000
0aaaaa

#590000
1aaaaa
1aaaag

#595000
0aaaaa

#600000
1aaaaa

#605000
0aaaaa

#610000
1aaaaa
0aaaab
0aaaag
b10010011 aaaak
b1000001 aaaam

#615000
0aaaaa

#620000
1aaaaa

#625000
0aaaaa

#630000
1aaaaa
1aaaag

#635000
0aaaaa

#640000
1aaaaa

#645000
0aaaaa

#650000
1aaaaa
1aaaab
1aaaac
0aaaag
b1001001 aaaak
b100000 aaaam

#655000
0aaaaa

#660000
1aaaaa

#665000
0aaaaa

#670000
1aaaaa
1aaaag

#675000
0aaaaa

#680000
1aaaaa

#685000
0aaaaa

#690000
1aaaaa
0aaaab
0aaaag
b10100100 aaaak
b10010000 aaaam

#695000
0aaaaa

#700000
1aaaaa

#705000
0aaaaa

#710000
1aaaaa
1aaaag

#715000
0aaaaa

#720000
1aaaaa

#725000
0aaaaa

#730000
1aaaaa
0aaaac
0aaaag
b1010010 aaaak
b11001000 aaaam

#735000
0aaaaa

#740000
1aaaaa

#745000
0aaaaa

#750000
1aaaaa
1aaaag

#755000
0aaaaa

#760000
1aaaaa

#765000
0aaaaa

#770000
1aaaaa
0aaaag
b101001 aaaak
b1100100 aaaam

#775000
0aaaaa

#780000
1aaaaa

#785000
0aaaaa

#790000
1aaaaa
1aaaag

#795000
0aaaaa

#800000
1aaaaa

#805000
0aaaaa

#810000
1aaaaa
1aaaac
0aaaag
b10100 aaaak
b110010 aaaam

#815000
0aaaaa

#820000
1aaaaa

#825000
0aaaaa

#830000
1aaaaa
1aaaag

#835000
0aaaaa

#840000
1aaaaa

#845000
0aaaaa

#850000
1aaaaa
0aaaac
0aaaag
b1010 aaaak
b10011001 aaaam

#855000
0aaaaa

#860000
1aaaaa
1aaaaf
0aaaah
0aaaai

#865000
0aaaaa

#870000
1aaaaa

#875000
0aaaaa

#880000
1aaaaa

#885000
0aaaaa

#890000
1aaaaa

#895000
0aaaaa

#900000
1aaaaa

#905000
0aaaaa

#910000
1aaaaa

#915000
0aaaaa

#920000
1aaaaa

#925000
0aaaaa

#930000
1aaaaa

#935000
0aaaaa

#940000
1aaaaa

#945000
0aaaaa

#950000
1aaaaa
1aaaad
b0 aaaak
b0 aaaam

#955000
0aaaaa

#960000
1aaaaa

#965000
0aaaaa

#970000
1aaaaa

#975000
0aaaaa

#980000
1aaaaa
1aaaac
0aaaad
1aaaae
0aaaaf
1aaaah

#985000
0aaaaa

#990000
1aaaaa
1aaaai

#995000
0aaaaa

#1000000
1aaaaa
0aaaae
1aaaag

#1005000
0aaaaa

#1010000
1aaaaa

#1015000
0aaaaa

#1020000
1aaaaa
1aaaab
0aaaac
0aaaag
b100110 aaaak
b11000010 aaaam

#1025000
0aaaaa

#1030000
1aaaaa

#1035000
0aaaaa

#1040000
1aaaaa
1aaaag

#1045000
0aaaaa

#1050000
1aaaaa

#1055000
0aaaaa

#1060000
1aaaaa
0aaaab
0aaaag
b10010011 aaaak
b1100001 aaaam

#1065000
0aaaaa

#1070000
1aaaaa

#1075000
0aaaaa

#1080000
1aaaaa
1aaaag

#1085000
0aaaaa

#1090000
1aaaaa

#1095000
0aaaaa

#1100000
1aaaaa
1aaaab
1aaaac
0aaaag
b1001001 aaaak
b110000 aaaam

#1105000
0aaaaa

#1110000
1aaaaa

#1115000
0aaaaa

#1120000
1aaaaa
1aaaag

#1125000
0aaaaa

#1130000
1aaaaa

#1135000
0aaaaa

#1140000
1aaaaa
0aaaab
0aaaag
b10100100 aaaak
b10011000 aaaam

#1145000
0aaaaa

#1150000
1aaaaa

#1155000
0aaaaa

#1160000
1aaaaa
1aaaag

#1165000
0aaaaa

#1170000
1aaaaa

#1175000
0aaaaa

#1180000
1aaaaa
0aaaac
0aaaag
b1010010 aaaak
b11001100 aaaam

#1185000
0aaaaa

#1190000
1aaaaa

#1195000
0aaaaa

#1200000
1aaaaa
1aaaag

#1205000
0aaaaa

#1210000
1aaaaa

#1215000
0aaaaa

#1220000
1aaaaa
0aaaag
b101001 aaaak
b1100110 aaaam

#1225000
0aaaaa

#1230000
1aaaaa

#1235000
0aaaaa

#1240000
1aaaaa
1aaaag

#1245000
0aaaaa

#1250000
1aaaaa

#1255000
0aaaaa

#1260000
1aaaaa
1aaaac
0aaaag
b10100 aaaak
b110011 aaaam

#1265000
0aaaaa

#1270000
1aaaaa

#1275000
0aaaaa

#1280000
1aaaaa
1aaaag

#1285000
0aaaaa

#1290000
1aaaaa

#1295000
0aaaaa

#1300000
1aaaaa
1aaaab
0aaaac
0aaaag
b1010 aaaak
b10011001 aaaam

#1305000
0aaaaa

#1310000
1aaaaa
1aaaaf
0aaaah
0aaaai

