graphs/test_amba.vcd
$date
	Sun Dec 24 02:35:55 2017
$end
$version
	GTKWave Analyzer v3.3.79 (w)1999-2017 BSI
$end
$timescale
	1ps
$end
$scope module SystemC $end
$var wire 32 % hrdata_in_1[31:0] $end
$var wire 32 $ hrdata_in_0[31:0] $end
$var wire 1 + hsel_2 $end
$var wire 32 # haddr[31:0] $end
$var wire 1 * hsel_1 $end
$var wire 32 - hrdata_out[31:0] $end
$var wire 32 , hwdata[31:0] $end
$var wire 1 ) hsel_0 $end
$var wire 32 & hrdata_in_2[31:0] $end
$var wire 1 ' hreset $end
$var wire 1 ( hwrite $end
$var wire 1 " clk_m $end
$upscope $end
$enddefinitions $end
$dumpvars
#0
b0 ,
0'
b0 #
b0 %
b0 $
0*
0)
b0 &
0"
0+
0(
b0 -
#10000
1)
b1000000000000000000101011001100 #
1(
1"
#15000
0"
#20000
1"
0)
b11011110101011011011111011101111 ,
0(
#25000
0"
#30000
1"
1(
b1000000000100000001110010101101 #
#35000
0"
#40000
1"
0(
b10111110111011111101111010101101 ,
#45000
0"
#50000
1"
b1000000000000000000101011001100 #
1)
1(
#55000
0"
#60000
1"
0(
0)
b10111110110110101011101010111010 ,
#65000
0"
#70000
1"
b1000000000000000010101011001100 #
1(
1+
#75000
0"
#80000
1"
0+
b11001011110011000100000000010011 ,
0(
#85000
0"
#90000
1"
1)
b1000000000000000000101011001100 #
#95000
0"
#100000
1"
1*
b11011110101011011011111011101111 $
b1000000000000000001101011001100 #
0)
#105000
0"
#110000
1"
1+
0*
b10101101101111101110111110101010 %
b1000000000000000010101011001100 #
#115000
0"
#120000
1"
0+
b11101010110110111110111011111101 &
#125000
0"
#130000
1"
b11101010110110111110111011111101 -
#135000
0"
#140000
1"
b1000000000000000001101011001100 #
1*
#145000
0"
#150000
1"
0*
b11101010110110111110111011101101 &
#155000
0"
#160000
1"
b11011110101011011011111011101111 &
b10101101101111101110111110101010 -
#165000
0"
#170000
1"
1)
b1000000000000000000101011001100 #
1(
#175000
0"
#180000
1"
b1000000000100000001110010101101 #
0)
b11011110101011011011111011101111 ,
#185000
0"
#190000
1"
b10111110111011111101111010101101 ,
1*
b1000000000000000001101011001100 #
#195000
0"
#200000
1"
b1000000000000000010101011001100 #
0*
b101010110011000100000000010011 ,
1+
#205000
0"
#210000
1"
0+
0(
b101011110011000100000000010011 ,
