graphs/test_pmodjstk.vcd
$date
	Mon Dec 18 01:35:17 2017
$end
$version
	GTKWave Analyzer v3.3.79 (w)1999-2017 BSI
$end
$timescale
	1ps
$end
$scope module SystemC $end
$var wire 1 ( ss $end
$var wire 1 * start $end
$var wire 1 % miso $end
$var wire 8 . data_out_s[7:0] $end
$var wire 8 - data_in_s[7:0] $end
$var wire 1 $ clock $end
$var wire 8 , data_out_m[7:0] $end
$var wire 8 + data_in_m[7:0] $end
$var wire 1 # busy_s $end
$var wire 1 " busy_m $end
$var wire 1 ) sclk $end
$var wire 1 ' rst $end
$var wire 1 & mosi $end
$upscope $end
$enddefinitions $end
$dumpvars
#0
b0 ,
0"
b0 .
1(
0*
b10100101 -
b0 +
0#
0&
0$
0)
0%
1'
#10000
0'
b111 +
1"
0(
1*
1$
1&
#15000
0$
#20000
1$
0*
1#
1%
#25000
0$
#30000
1$
1)
#35000
0$
#40000
1$
#45000
0$
#50000
1$
b10000001 ,
b10101001 .
0)
0%
#55000
0$
#60000
1$
#65000
0$
#70000
1$
1)
#75000
0$
#80000
1$
#85000
0$
#90000
1$
1%
b1000000 ,
0)
b11010100 .
#95000
0$
#100000
1$
#105000
0$
#110000
1$
1)
#115000
0$
#120000
1$
#125000
0$
#130000
1$
b11101010 .
0%
0)
0&
b10100000 ,
#135000
0$
#140000
1$
#145000
0$
#150000
1$
1)
#155000
0$
#160000
1$
#165000
0$
#170000
1$
b1010000 ,
b1110101 .
0)
#175000
0$
#180000
1$
#185000
0$
#190000
1$
1)
#195000
0$
#200000
1$
#205000
0$
#210000
1$
0)
b101000 ,
b111010 .
1%
#215000
0$
#220000
1$
#225000
0$
#230000
1$
1)
#235000
0$
#240000
1$
#245000
0$
#250000
1$
0)
0%
b11101 .
b10010100 ,
#255000
0$
#260000
1$
#265000
0$
#270000
1$
1)
#275000
0$
#280000
1$
#285000
0$
#290000
1$
0)
b1001010 ,
b1110 .
1%
#295000
0$
#300000
1$
#305000
0$
#310000
1$
1)
#315000
0$
#320000
1$
#325000
0$
#330000
1$
0)
0%
b111 .
b10100101 ,
#335000
0$
#340000
1$
1(
0"
0#
#345000
0$
#350000
1$
b0 ,
0(
b11 -
b0 +
1"
1*
#355000
0$
#360000
1$
0*
1#
1%
b0 .
#365000
0$
#370000
1$
1)
#375000
0$
#380000
1$
#385000
0$
#390000
1$
0)
b11000000 ,
#395000
0$
#400000
1$
#405000
0$
#410000
1$
1)
#415000
0$
#420000
1$
#425000
0$
#430000
1$
0)
b11100000 ,
0%
#435000
0$
#440000
1$
#445000
0$
#450000
1$
1)
#455000
0$
#460000
1$
#465000
0$
#470000
1$
0)
b1110000 ,
#475000
0$
#480000
1$
#485000
0$
#490000
1$
1)
#495000
0$
#500000
1$
#505000
0$
#510000
1$
b111000 ,
0)
#515000
0$
#520000
1$
#525000
0$
#530000
1$
1)
#535000
0$
#540000
1$
#545000
0$
#550000
1$
0)
b11100 ,
#555000
0$
#560000
1$
#565000
0$
#570000
1$
1)
#575000
0$
#580000
1$
#585000
0$
#590000
1$
b1110 ,
0)
#595000
0$
#600000
1$
#605000
0$
#610000
1$
1)
#615000
0$
#620000
1$
#625000
0$
#630000
1$
0)
b111 ,
#635000
0$
#640000
1$
#645000
0$
#650000
1$
1)
#655000
0$
#660000
1$
#665000
0$
#670000
1$
b11 ,
0)
1&
#675000
0$
#680000
1$
0&
1(
0#
0"
#685000
0$
#690000
1$
1"
1*
b10100101 -
0(
b0 ,
#695000
0$
#700000
1$
0*
1%
1#
#705000
0$
#710000
1$
1)
#715000
0$
#720000
1$
#725000
0$
#730000
1$
b10000000 ,
b101001 .
0)
0%
#735000
0$
#740000
1$
#745000
0$
#750000
1$
1)
#755000
0$
#760000
1$
#765000
0$
#770000
1$
1%
b1000000 ,
0)
b10100 .
#775000
0$
#780000
1$
#785000
0$
#790000
1$
1)
#795000
0$
#800000
1$
#805000
0$
#810000
1$
b1010 .
0%
0)
b10100000 ,
#815000
0$
#820000
1$
#825000
0$
#830000
1$
1)
#835000
0$
#840000
1$
#845000
0$
#850000
1$
b1010000 ,
b101 .
0)
#855000
0$
#860000
1$
#865000
0$
#870000
1$
1)
#875000
0$
#880000
1$
#885000
0$
#890000
1$
0)
b101000 ,
b10 .
1%
#895000
0$
#900000
1$
#905000
0$
#910000
1$
1)
#915000
0$
#920000
1$
#925000
0$
#930000
1$
0)
0%
b1 .
b10010100 ,
#935000
0$
#940000
1$
#945000
0$
#950000
1$
1)
#955000
0$
#960000
1$
#965000
0$
#970000
1$
0)
b1001010 ,
b0 .
1%
#975000
0$
#980000
1$
#985000
0$
#990000
1$
1)
#995000
0$
#1000000
1$
#1005000
0$
#1010000
1$
0)
0%
b10100101 ,
#1015000
0$
#1020000
1$
0#
0"
1(
#1025000
0$
#1030000
1$
0(
b0 ,
1*
1"
b11 -
#1035000
0$
#1040000
1$
1#
1%
0*
#1045000
0$
#1050000
1$
1)
#1055000
0$
#1060000
1$
#1065000
0$
#1070000
1$
0)
b11000000 ,
#1075000
0$
#1080000
1$
#1085000
0$
#1090000
1$
1)
#1095000
0$
#1100000
1$
#1105000
0$
#1110000
1$
0)
b11100000 ,
0%
#1115000
0$
#1120000
1$
#1125000
0$
#1130000
1$
1)
#1135000
0$
#1140000
1$
#1145000
0$
#1150000
1$
0)
b1110000 ,
#1155000
0$
#1160000
1$
#1165000
0$
#1170000
1$
1)
#1175000
0$
#1180000
1$
#1185000
0$
#1190000
1$
b111000 ,
0)
#1195000
0$
#1200000
1$
#1205000
0$
#1210000
1$
1)
#1215000
0$
#1220000
1$
#1225000
0$
#1230000
1$
0)
b11100 ,
#1235000
0$
#1240000
1$
#1245000
0$
#1250000
1$
1)
#1255000
0$
#1260000
1$
#1265000
0$
#1270000
1$
b1110 ,
0)
#1275000
0$
#1280000
1$
#1285000
0$
#1290000
1$
1)
#1295000
0$
#1300000
1$
#1305000
0$
#1310000
1$
0)
b111 ,
#1315000
0$
#1320000
1$
#1325000
0$
#1330000
1$
1)
#1335000
0$
#1340000
1$
#1345000
0$
#1350000
1$
b11 ,
1&
0)
#1355000
0$
#1360000
1$
1(
0&
0"
0#
#1365000
0$
#1370000
1$
1*
b0 ,
b111 -
1"
0(
#1375000
0$
#1380000
1$
1#
1%
0*
#1385000
0$
#1390000
1$
1)
#1395000
0$
#1400000
1$
#1405000
0$
#1410000
1$
0)
b10000000 ,
b1 .
#1415000
0$
#1420000
1$
#1425000
0$
#1430000
1$
1)
#1435000
0$
#1440000
1$
#1445000
0$
#1450000
1$
0)
b0 .
b11000000 ,
#1455000
0$
#1460000
1$
#1465000
0$
#1470000
1$
1)
#1475000
0$
#1480000
1$
#1485000
0$
#1490000
1$
0)
0%
b11100000 ,
#1495000
0$
#1500000
1$
#1505000
0$
#1510000
1$
1)
#1515000
0$
#1520000
1$
#1525000
0$
#1530000
1$
0)
b1110000 ,
#1535000
0$
#1540000
1$
#1545000
0$
#1550000
1$
1)
#1555000
0$
#1560000
1$
#1565000
0$
#1570000
1$
0)
b111000 ,
#1575000
0$
#1580000
1$
#1585000
0$
#1590000
1$
1)
#1595000
0$
#1600000
1$
#1605000
0$
#1610000
1$
0)
b11100 ,
#1615000
0$
#1620000
1$
#1625000
0$
#1630000
1$
1)
#1635000
0$
#1640000
1$
#1645000
0$
#1650000
1$
0)
b1110 ,
#1655000
0$
#1660000
1$
#1665000
0$
#1670000
1$
1)
#1675000
0$
#1680000
1$
#1685000
0$
#1690000
1$
0)
b111 ,
#1695000
0$
#1700000
1$
1(
0#
0"
